module renansmoreira/deck

go 1.21.3

require (
	github.com/google/uuid v1.6.0 // indirect
	github.com/jinzhu/inflection v1.0.0 // indirect
	github.com/jinzhu/now v1.1.5 // indirect
	github.com/mattn/go-sqlite3 v1.14.22 // indirect
	gorm.io/driver/sqlite v1.5.5 // indirect
	gorm.io/gorm v1.25.7 // indirect
)
